Results Reliability Generalization and Variance Decomposition
…
colnames(vis.df_empT) <- paste0(colnames(vis.df_empF), "_empT")
colnames(vis.df_summarised_empT) <- paste0(colnames(vis.df_summarised_empF), "_empT")
colnames(vis.df_summarized2_empT) <- paste0(colnames(vis.df_summarized2_empF), "_empT")
colnames(vis.df2_empT) <- paste0(colnames(vis.df2_empF), "_empT")

vis.df <- cbind(vis.df_empF, vis.df_empT)
vis.df_summarised <- cbind(vis.df_summarised_empF, vis.df_summarised_empT)
vis.df_summarized2 <- cbind(vis.df_summarized2_empF, vis.df_summarized2_empT)
vis.df2 <- cbind(vis.df2_empF, vis.df2_empT)

vis.df_summarized2

# A tibble: 80 × 54
# Groups:   CVT, CVE [16]
     CVT   CVE   rel bias_varT.M bias_varT.MAE bias_varE.M bias_varE.MAE
   <dbl> <dbl> <dbl>       <dbl>         <dbl>       <dbl>         <dbl>
 1     0   0     0.1    0.00215         -0.297   -0.00207       -0.0376 
 2     0   0     0.3    0.000652        -0.310   -0.00273       -0.0303 
 3     0   0     0.5   -0.000509        -0.319    0.000297      -0.0198 
 4     0   0     0.7    0.00310         -0.320   -0.000659      -0.0127 
 5     0   0     0.9    0.00682         -0.324    0.000102      -0.00388
 6     0   0.1   0.1    0.00808         -0.295    0.00388       -0.0347 
 7     0   0.1   0.3    0.00338         -0.307   -0.00429       -0.0343 
 8     0   0.1   0.5    0.0104          -0.309   -0.00410       -0.0256 
 9     0   0.1   0.7   -0.00419         -0.329    0.00393       -0.00902
10     0   0.1   0.9    0.00516         -0.321   -0.000591      -0.00484
# ℹ 70 more rows
# ℹ 47 more variables: bias_rel.M <dbl>, bias_rel.MAE <dbl>, bias_tauT <dbl>,
#   bias_tauE <dbl>, MSE_varT.M <dbl>, MSE_varT.MAE <dbl>, MSE_varE.M <dbl>,
#   MSE_varE.MAE <dbl>, MSE_rel.M <dbl>, MSE_rel.MAE <dbl>, MSE_tauT <dbl>,
#   MSE_tauE <dbl>, RMSE_varT.M <dbl>, RMSE_varT.MAE <dbl>, RMSE_varE.M <dbl>,
#   RMSE_varE.MAE <dbl>, RMSE_rel.M <dbl>, RMSE_rel.MAE <dbl>, RMSE_tauT <dbl>,
#   RMSE_tauE <dbl>, CVT_empT <dbl>, CVE_empT <dbl>, rel_empT <dbl>, …
…
